<?xml version="1.0" standalone="no"?>
<!DOCTYPE svg PUBLIC "-//W3C//DTD SVG 1.1//EN" "http://www.w3.org/Graphics/SVG/1.1/DTD/svg11.dtd" >
<!--
2013-9-30: Created.
-->
<svg>
<metadata>
Created by iconfont
</metadata>
<defs>

<font id="iconfont" horiz-adv-x="1024" >
  <font-face
    font-family="iconfont"
    font-weight="500"
    font-stretch="normal"
    units-per-em="1024"
    ascent="896"
    descent="-128"
  />
    <missing-glyph />
    
    <glyph glyph-name="exhaust" unicode="&#59019;" d="M512 896c282.768 0 512-229.232 512-512 0-282.768-229.232-512-512-512C229.232-128 0 101.232 0 384 0 666.768 229.232 896 512 896z m0-32C246.896 864 32 649.104 32 384c0-265.104 214.896-480 480-480 265.104 0 480 214.896 480 480C992 649.104 777.104 864 512 864z m-11.696-493.632c10.016 5.2 16.448 7.408 24.272 7.2 10.4-0.256 16.672-3.536 35.248-16.032 28.064-18.848 39.456-26.16 65.392-41.12 16.992-9.792 36.496-17.04 62.08-23.76 5.68-1.488 11.632-2.96 18.688-4.624l9.392-2.176 9.344-2.16c92-21.248 125.936-45.632 123.008-118.992-4.448-110.144-170.992-144.08-279.552-81.408-109.696 63.328-167.152 232.832-67.872 283.072z m315.44-200.368c2.112 52.768-19.584 68.352-98.224 86.512l-9.344 2.16-9.52 2.208a773.776 773.776 0 0 0-19.488 4.832c-28.096 7.376-50.096 15.536-69.952 26.992-26.72 15.408-38.592 23.04-67.232 42.272-12.704 8.544-16.576 10.56-18.224 10.608-0.928 0.032-3.184-0.752-8.88-3.696-69.312-35.088-22.208-174.048 69.28-226.88 91.024-52.528 228.384-24.544 231.584 54.992zM504.48 400.512c-0.928-17.312-4.4-26.4-15.776-34.832-4.928-3.648-58.832-30.064-90.176-48.128-20.48-11.776-38.432-27.584-63.232-53.792-4-4.224-17.664-18.896-17.84-19.104a655.52 655.52 0 0 0-17.888-18.512c-48.384-47.808-89.696-59.408-143.6-25.376-93.616 58.96-39.968 220.16 68.72 282.896l3.712 2.144c109.952 60.368 281.312 24.8 276.08-85.296zM173.024 227.84c39.136-24.704 65.12-17.408 104.048 21.072 4.976 4.912 10.144 10.272 17.024 17.616 0.112 0.128 13.872 14.88 17.952 19.216 26.768 28.288 46.72 45.84 70.512 59.552 33.568 19.328 84.96 44.512 87.088 46.096 2.24 1.664 2.4 2.096 2.88 10.72 3.68 77.872-140.304 106.688-231.52 53.856l-3.712-2.16c-88.864-53.968-131.04-183.904-64.272-225.968z m575.008 348.912c0-126.752-118.288-261.296-211.776-200.32a78.624 78.624 0 0 0-10.496 7.824c-13.712 12.56-13.6 10.16-10.176 64.512 1.216 19.2 1.872 37.936 1.872 60.848 0 25.76-5.12 49.152-17.984 91.2-16.64 54.416-20.432 70.4-19.232 95.168 1.68 35.12 19.776 62.24 57.296 81.984 97.76 51.376 210.496-75.792 210.496-201.216z m-32 0c0 105.136-92.96 210.016-163.6 172.896-48.72-25.632-49.872-49.472-22.352-139.456 13.76-44.96 19.36-70.72 19.36-100.576 0-23.616-0.656-43.04-1.92-62.864-2.4-38.208-2.464-36.768-0.144-38.912 1.232-1.12 3.184-2.56 6.352-4.608 65.28-42.576 162.304 67.76 162.304 173.52z"  horiz-adv-x="1024" />

    
    <glyph glyph-name="Requestservice" unicode="&#59020;" d="M605.717233 376.461877l101.714404 106.793176-143.203672 20.934141-65.758722 132.641848-61.703285-134.852757-142.913096-22.980809 105.744573-104.582268-22.6776-147.638122 125.617479 70.62272 127.929456-68.689755-24.76217 147.751826z m58.1911-194.383035l-161.080443 86.490723-158.755831-89.257516 28.602833 186.208992-131.997527 130.506743 178.729806 28.754439 78.152441 170.783171 83.420719-168.281687 178.43923-26.088715L632.715579 368.161497l31.192754-186.095288zM884.935969 883.36624c36.107287 0 69.75099-36.549468 75.436182-76.686925L960.498489-43.825425c0-71.001733-59.214434-98.164317-108.675606-77.369147L555.257995 10.739786c-22.87974 11.534623-65.228104 10.865034-91.607395-0.214774L185.922648-116.58325c-21.275252-8.944702-48.172528-13.556025-70.395312-8.957336C82.98277-118.806792 63.501511-93.728778 63.501511-50.862429V804.897955C63.501511 846.222985 90.689363 883.36624 127.415704 883.36624h757.520265z m0-25.267521h-757.520265C106.645803 858.098719 88.769032 833.665027 88.769032 804.910589v-855.773018c0-31.116951 11.307215-45.671043 31.874977-49.928621 16.474423-3.411115 38.507701 0.379013 55.121096 7.340215l277.727951 127.120896c33.188888 13.947671 83.193311 14.730964 112.592072-0.113704l295.768961-131.542712C896.066311-112.363574 935.230968-94.411001 935.230968-43.825425V803.97569C930.809152 832.325848 906.88081 858.098719 884.935969 858.098719z"  horiz-adv-x="1024" />

    
    <glyph glyph-name="emergencycall" unicode="&#59021;" d="M1001.939753 84.80237C1054.46716-9.494123 1009.487012-90.074074 903.901235-90.074074H120.086123C14.512988-90.074074-30.46716-9.494123 22.072889 84.80237L413.809778 787.177877c52.767605 94.524049 143.448494 94.524049 196.203457 0l388.209777-695.890173 3.716741-6.485334z m-22.174025-12.313284L587.940346 774.851951c-43.109136 77.242469-108.935901 77.242469-152.045037 0L44.15842 72.501728C0.872296-5.208494 34.120691-64.790123 120.086123-64.790123h783.827754c84.22084 0 117.848494 57.179654 78.46874 132.576395l-2.616889 4.702814zM544.982914 331.64958c2.439901 17.559704 5.18321 35.979062 8.267851 55.890173 2.326123 15.006025 4.728099 30.012049 7.749531 48.583111 0.025284 0.12642 5.436049 33.286321 6.750815 41.440395 4.424691 27.483654 6.422123 41.718519 6.434766 46.547753a71.275457 71.275457 0 0 1-17.774618 49.543902c-11.719111 12.882173-26.206815 19.152593-44.841086 19.152592a56.307358 56.307358 0 0 1-43.96879-19.380148c-11.984593-13.324642-17.850469-29.658074-17.774618-49.733531 0-6.750815 22.932543-140.427062 20.998321-128.670025 3.716741-22.65442 6.927802-43.513679 9.709037-63.36158 3.666173-26.042469 6.510617-49.796741 8.482766-71.262815h47.280988c2.149136 21.415506 5.05679 45.131852 8.685037 71.250173z m-33.071408 286.441877c25.334519 0 46.648889-9.228642 63.311013-27.546864a96.369778 96.369778 0 0 0 24.234666-66.850766c0-6.472691-1.946864-20.391506-6.738173-50.150716l-6.763456-41.465679a6669.691259 6669.691259 0 0 1-7.711605-48.418765 3499.703309 3499.703309 0 0 1-8.217284-55.498272c-4.247704-30.505086-7.484049-57.647407-9.658469-81.540741l-1.036642-11.504197h-93.588544l-0.935506 11.630617c-1.896296 23.893333-5.031506 51.01037-9.304494 81.401679-2.755951 19.632988-5.941728 40.315259-9.620543 62.792691a5306.49442 5306.49442 0 0 1-7.762173 45.940939l-6.78874 39.190123c-4.86716 28.381235-6.788741 41.288691-6.788741 47.584395-0.101136 26.093037 7.93916 48.494617 24.057679 66.458864a81.401679 81.401679 0 0 0 63.311012 27.976692zM448.663704 590.190617l-0.12642-0.164345a82.514173 82.514173 0 0 0 0.12642 0.164345zM555.564247 78.291753l0.303407 0.316049a61.69284 61.69284 0 0 1 18.318223 45.296198 63.538568 63.538568 0 0 1-18.520494 45.637531c-12.427062 12.793679-26.800988 19.000889-43.867655 19.000889a58.532346 58.532346 0 0 1-43.627456-19.013531c-12.47763-12.856889-18.608988-27.964049-18.608988-46.004148a61.579062 61.579062 0 0 1 18.710123-45.232988 59.26558 59.26558 0 0 1 43.779161-18.469926 59.101235 59.101235 0 0 1 43.513679 18.469926z m-43.513679-43.753876a84.081778 84.081778 0 0 0-61.793975 26.017185 86.420543 86.420543 0 0 0-25.97926 63.197234c0 24.38637 8.685037 45.801877 25.53679 63.159309a83.563457 83.563457 0 0 0 62.097383 26.927407c23.868049 0 44.752593-9.039012 61.781334-26.586074a88.493827 88.493827 0 0 0 25.764345-63.273086 86.723951 86.723951 0 0 0-25.701136-63.247803 84.22084 84.22084 0 0 0-61.705481-26.194172z"  horiz-adv-x="1024" />

    


  </font>
</defs></svg>
